
state={
	id=33
	name="STATE_33"
	manpower = 636400000
	
	state_category = town

	history = { 1999.1.1 = { 
			owner = H12			remove_core_of = H12		}

		victory_points = {
			651 1
		}
		owner = FRA
		
		buildings = {
			infrastructure = 6
		}
		add_core_of = FRA
	}

	provinces={
		651 669 3621 3626 3655 6648 6651 9629 11869 
	}
}
