
state={
	id=34
	name="STATE_34"
	manpower = 3381300
	
	state_category = large_city

	history = { 1999.1.1 = { 
			owner = BET
			remove_core_of = BET
		}
		owner = BEL
		victory_points = {
			3516 5
		}
		victory_points = {
			11519 10
		}
		victory_points = {
			9536 3
		}
		buildings = {
			infrastructure = 6
			arms_factory = 1
			industrial_complex = 4
			air_base = 1

		}
		add_core_of = BEL
	}

	provinces={
		3488 3516 6537 9418 9444 9536 11407 11519 13081 
	}
}
