state={
	id=98
	name="STATE_98"
	manpower = 1412100
	
	state_category = rural
	history = { 1999.1.1 = { 
			owner = BET
			remove_core_of = BET
		}
		
		victory_points = {
			3230 5
		}
		owner = POL
		buildings = {
			infrastructure = 6
		}
		add_core_of = POL
	}

	provinces={
		548 3230 6259 6321 6401 6567 9290 9316 11385 
	}
}
